Entrega grupal
…
datos_elecciones_tidy |> 
  filter(censo > 100000) |>
  group_by(fecha, cod_mun) |> 
  slice_max(Votos, n=1) |>
  select(c(fecha, cod_mun, municipio, siglas))

# A tibble: 282 × 4
# Groups:   fecha, cod_mun [282]
   fecha      cod_mun   municipio            siglas
   <date>     <glue>    <chr>                <chr> 
 1 2008-03-01 01-04-013 Almería              PP    
 2 2008-03-01 01-11-012 Cádiz                PSOE  
 3 2008-03-01 01-11-020 Jerez de la Frontera PSOE  
 4 2008-03-01 01-14-021 Córdoba              PP    
 5 2008-03-01 01-18-087 Granada              PP    
 6 2008-03-01 01-21-041 Huelva               PSOE  
 7 2008-03-01 01-29-067 Málaga               PSOE  
 8 2008-03-01 01-41-091 Sevilla              PSOE  
 9 2008-03-01 02-50-297 Zaragoza             PSOE  
10 2008-03-01 03-33-024 Gijón                PSOE  
# ℹ 272 more rows
…
datos_elecciones_tidy |>
  filter(municipio %in% mas_part) |>
  group_by(fecha, municipio) |>
  slice_max(Votos, n=1) |>
  select(fecha, cod_mun, municipio, siglas)

# A tibble: 30 × 4
# Groups:   fecha, municipio [30]
   fecha      cod_mun   municipio siglas
   <date>     <glue>    <chr>     <chr> 
 1 2008-03-01 09-08-019 Barcelona PSOE  
 2 2008-03-01 12-28-079 Madrid    PP    
 3 2008-03-01 01-41-091 Sevilla   PSOE  
 4 2008-03-01 17-46-250 València  PP    
 5 2008-03-01 02-50-297 Zaragoza  PSOE  
 6 2011-11-01 09-08-019 Barcelona OTROS 
 7 2011-11-01 12-28-079 Madrid    PP    
 8 2011-11-01 01-41-091 Sevilla   PP    
 9 2011-11-01 17-46-250 València  PP    
10 2011-11-01 02-50-297 Zaragoza  PP    
# ℹ 20 more rows

datos_elecciones_tidy |>
  filter(municipio %in% men_part) |>
  group_by(fecha, municipio) |>
  slice_max(Votos, n=1, with_ties = FALSE) |>
  select(fecha, cod_mun, municipio, siglas)

# A tibble: 144 × 4
# Groups:   fecha, municipio [144]
   fecha      cod_mun   municipio               siglas
   <date>     <glue>    <chr>                   <chr> 
 1 2008-03-01 08-42-010 Aldealices              PP    
 2 2008-03-01 08-42-011 Aldealpozo              PP    
 3 2008-03-01 07-19-031 Angón                   PP    
 4 2008-03-01 07-16-020 Arandilla del Arroyo    PP    
 5 2008-03-01 08-42-051 Carabantes              PP    
 6 2008-03-01 08-40-161 Carabias                PP    
 7 2008-03-01 08-42-052 Caracena                PP    
 8 2008-03-01 08-42-054 Carrascosa de la Sierra PP    
 9 2008-03-01 07-19-079 Castilnuevo             PP    
10 2008-03-01 07-19-095 Condemios de Abajo      PP    
# ℹ 134 more rows
…
